%YAML 1.1
%TAG !u! tag:unity3d.com,2011:
--- !u!1045 &1
EditorBuildSettings:
  m_ObjectHideFlags: 0
  serializedVersion: 2
  m_Scenes:
  - enabled: 0
    path: Assets/Scenes/PlazaPan.unity
    guid: d1c3109bdb54ad54c8a2b2838528e640
  - enabled: 1
    path: Assets/Scenes/TimeTravel.unity
    guid: a323a9447f9953541ba27575cd25971e
  m_configObjects:
    Unity.XR.Oculus.Settings: {fileID: 11400000, guid: 5d44944d261bebc4f81c8aff28424b4c,
      type: 2}
    com.unity.xr.management.loader_settings: {fileID: 11400000, guid: b1c2b66f316bf2f4a89593603497e274,
      type: 2}
